management.sch: Management schedules - LREW Sub Water
    MGT_NAME    NUMB_OPS   NUMB_AUTO OP_TYPE   TRIG_TYPE         DAY     HU_SCH COND      OP_DATA1 OP_DATA2 OP_OVERRIDE
      mgt001          33           0                                                      
                                        till           4           1      0.000 null      riprsubs     null       0.000
                                        till           4          15      0.000 null      riprsubs     null       0.000
                                        till           5           1      0.000 null       fldcult     null       0.000
                                        plnt           5           2      0.000 null          pnut     null       0.000
										harv          10           1      0.000 null       peanuts     pnut       0.000
										kill          10           1      0.000 null          pnut     null       0.000
										till           3           1      0.000 null      riprsubs     null       0.000
										till           3          15      0.000 null      riprsubs     null       0.000
										till           4           1      0.000 null       fldcult     null       0.000
										plnt           4           2      0.000 null          corn     null       0.000
										fert           4           3      0.000 null       fert001     null       0.000
										fert           4           3      0.000 null       fert002     null       0.000
										harv           9           1      0.000 null         grain     corn       0.000
										kill           9           1      0.000 null          corn     null       0.000
										till           3          15      0.000 null      riprsubs     null       0.000
										till           4           1      0.000 null      riprsubs     null       0.000
										till           4          15      0.000 null      riprsubs     null       0.000
										till           5           1      0.000 null       fldcult     null       0.000
										plnt           5           2      0.000 null          cots     null       0.000
										fert           5           3      0.000 null       fert003     null       0.000
										fert           5           3      0.000 null       fert004     null       0.000
										harv          11           1      0.000 null         grain     cots       0.000
										kill          11           1      0.000 null          cots     null       0.000
										till           3          15      0.000 null      riprsubs     null       0.000
										till           4           1      0.000 null      riprsubs     null       0.000
										till           4          15      0.000 null      riprsubs     null       0.000
										till           5           1      0.000 null       fldcult     null       0.000
										plnt           5           2      0.000 null          cots     null       0.000
										fert           5           3      0.000 null       fert003     null       0.000
										fert           5           3      0.000 null       fert004     null       0.000
										harv          11           1      0.000 null         grain     cots       0.000
										kill          11           1      0.000 null          cots     null       0.000
										skip           0           0      0.000 null          null     null       0.000
      mgt002           3           0                                                   
                                        plnt           3           1      0.000 null          past     null       0.000
                                        harv          11           1      0.000 null   hay_cut_low     past       0.000
                                        skip           0           0      0.000 null          null     null       0.000
      mgt003           0           0
      mgt004           0           0
      mgt005           0           0
      mgt006           0           0
      mgt007           3           0
                                        plnt           3           1      0.000 null          berm     null       0.000
                                        harv          11           1      0.000 null     grass_bag     berm       0.000
                                        skip           0           0      0.000 null          null     null       0.000
      mgt008          33           0                                                      
										till           3           1      0.000 null      riprsubs     null       0.000
										till           3          15      0.000 null      riprsubs     null       0.000
										till           4           1      0.000 null       fldcult     null       0.000
										plnt           4           2      0.000 null          corn     null       0.000
										fert           4           3      0.000 null       fert001     null       0.000
										fert           4           3      0.000 null       fert002     null       0.000
										harv           9           1      0.000 null         grain     corn       0.000
										kill           9           1      0.000 null          corn     null       0.000
										till           3          15      0.000 null      riprsubs     null       0.000
										till           4           1      0.000 null      riprsubs     null       0.000
										till           4          15      0.000 null      riprsubs     null       0.000
										till           5           1      0.000 null       fldcult     null       0.000
										plnt           5           2      0.000 null          cots     null       0.000
										fert           5           3      0.000 null       fert003     null       0.000
										fert           5           3      0.000 null       fert004     null       0.000
										harv          11           1      0.000 null         grain     cots       0.000
										kill          11           1      0.000 null          cots     null       0.000
										till           3          15      0.000 null      riprsubs     null       0.000
										till           4           1      0.000 null      riprsubs     null       0.000
										till           4          15      0.000 null      riprsubs     null       0.000
										till           5           1      0.000 null       fldcult     null       0.000
										plnt           5           2      0.000 null          cots     null       0.000
										fert           5           3      0.000 null       fert003     null       0.000
										fert           5           3      0.000 null       fert004     null       0.000
										harv          11           1      0.000 null         grain     cots       0.000
										kill          11           1      0.000 null          cots     null       0.000
                                        till           4           1      0.000 null      riprsubs     null       0.000
                                        till           4          15      0.000 null      riprsubs     null       0.000
                                        till           5           1      0.000 null       fldcult     null       0.000
                                        plnt           5           2      0.000 null          pnut     null       0.000
										harv          10           1      0.000 null       peanuts     pnut       0.000
										kill          10           1      0.000 null          pnut     null       0.000
										skip           0           0      0.000 null          null     null       0.000
      mgt009          33           0                                                      
										till           3          15      0.000 null      riprsubs     null       0.000
										till           4           1      0.000 null      riprsubs     null       0.000
										till           4          15      0.000 null      riprsubs     null       0.000
										till           5           1      0.000 null       fldcult     null       0.000
										plnt           5           2      0.000 null          cots     null       0.000
										fert           5           3      0.000 null       fert003     null       0.000
										fert           5           3      0.000 null       fert004     null       0.000
										harv          11           1      0.000 null         grain     cots       0.000
										kill          11           1      0.000 null          cots     null       0.000
										till           3          15      0.000 null      riprsubs     null       0.000
										till           4           1      0.000 null      riprsubs     null       0.000
										till           4          15      0.000 null      riprsubs     null       0.000
										till           5           1      0.000 null       fldcult     null       0.000
										plnt           5           2      0.000 null          cots     null       0.000
										fert           5           3      0.000 null       fert003     null       0.000
										fert           5           3      0.000 null       fert004     null       0.000
										harv          11           1      0.000 null         grain     cots       0.000
										kill          11           1      0.000 null          cots     null       0.000
                                        till           4           1      0.000 null      riprsubs     null       0.000
                                        till           4          15      0.000 null      riprsubs     null       0.000
                                        till           5           1      0.000 null       fldcult     null       0.000
                                        plnt           5           2      0.000 null          pnut     null       0.000
										harv          10           1      0.000 null       peanuts     pnut       0.000
										kill          10           1      0.000 null          pnut     null       0.000
										till           3           1      0.000 null      riprsubs     null       0.000
										till           3          15      0.000 null      riprsubs     null       0.000
										till           4           1      0.000 null       fldcult     null       0.000
										plnt           4           2      0.000 null          corn     null       0.000
										fert           4           3      0.000 null       fert001     null       0.000
										fert           4           3      0.000 null       fert002     null       0.000
										harv           9           1      0.000 null         grain     corn       0.000
										kill           9           1      0.000 null          corn     null       0.000
										skip           0           0      0.000 null          null     null       0.000
      mgt010          33           0                                                      
										till           3          15      0.000 null      riprsubs     null       0.000
										till           4           1      0.000 null      riprsubs     null       0.000
										till           4          15      0.000 null      riprsubs     null       0.000
										till           5           1      0.000 null       fldcult     null       0.000
										plnt           5           2      0.000 null          cots     null       0.000
										fert           5           3      0.000 null       fert003     null       0.000
										fert           5           3      0.000 null       fert004     null       0.000
										harv          11           1      0.000 null         grain     cots       0.000
										kill          11           1      0.000 null          cots     null       0.000
                                        till           4           1      0.000 null      riprsubs     null       0.000
                                        till           4          15      0.000 null      riprsubs     null       0.000
                                        till           5           1      0.000 null       fldcult     null       0.000
                                        plnt           5           2      0.000 null          pnut     null       0.000
										harv          10           1      0.000 null       peanuts     pnut       0.000
										kill          10           1      0.000 null          pnut     null       0.000
										till           3           1      0.000 null      riprsubs     null       0.000
										till           3          15      0.000 null      riprsubs     null       0.000
										till           4           1      0.000 null       fldcult     null       0.000
										plnt           4           2      0.000 null          corn     null       0.000
										fert           4           3      0.000 null       fert001     null       0.000
										fert           4           3      0.000 null       fert002     null       0.000
										harv           9           1      0.000 null         grain     corn       0.000
										kill           9           1      0.000 null          corn     null       0.000
										till           3          15      0.000 null      riprsubs     null       0.000
										till           4           1      0.000 null      riprsubs     null       0.000
										till           4          15      0.000 null      riprsubs     null       0.000
										till           5           1      0.000 null       fldcult     null       0.000
										plnt           5           2      0.000 null          cots     null       0.000
										fert           5           3      0.000 null       fert003     null       0.000
										fert           5           3      0.000 null       fert004     null       0.000
										harv          11           1      0.000 null         grain     cots       0.000
										kill          11           1      0.000 null          cots     null       0.000
										skip           0           0      0.000 null          null     null       0.000