pesticide.res: Reservoir pesticide inputs - Water_LS2_Take2
  RES_PST_NUMB  RES_PST_NAME    PST_CON    PST_KOC    PST_MIX    PST_REA    PST_RSP    PST_STL    PST_VOL SEDPST_ACT SEDPST_BRY SEDPST_CONC SEDPST_REA
             1        res001      0.000      0.500      0.010      0.020      0.010      0.200      0.010      0.200      0.050       0.010      1.000
