reservoir.res: Reservoir properties - Water_LS2_Take2
    RES_NUMB    RES_NAME     RES_INI     RES_HYD         RELEASE     RES_SED     RES_NUT     RES_PST
           1        pnd1      res001        pnd1   corps_med_res      res001      res001      res001
           2        pnd2      res001        pnd2   corps_med_res      res001      res001      res001
           3        pnd3      res001        pnd3   corps_med_res      res001      res001      res001
           4        pnd4      res001        pnd4   corps_med_res      res001      res001      res001
           5        pnd5      res001        pnd5   corps_med_res      res001      res001      res001
           6        pnd6      res001        pnd6   corps_med_res      res001      res001      res001
           7        pnd7      res001        pnd7   corps_med_res      res001      res001      res001
           8        pnd8      res001        pnd8   corps_med_res      res001      res001      res001
           9        pnd9      res001        pnd9   corps_med_res      res001      res001      res001
          10       pnd10      res001       pnd10   corps_med_res      res001      res001      res001
          11       pnd11      res001       pnd11   corps_med_res      res001      res001      res001
          12       pnd12      res001       pnd12   corps_med_res      res001      res001      res001
          13       pnd13      res001       pnd13   corps_med_res      res001      res001      res001
          14       pnd14      res001       pnd14   corps_med_res      res001      res001      res001
          15       pnd15      res001       pnd15   corps_med_res      res001      res001      res001
          16       pnd16      res001       pnd16   corps_med_res      res001      res001      res001
          17       pnd17      res001       pnd17   corps_med_res      res001      res001      res001
          18       pnd18      res001       pnd18   corps_med_res      res001      res001      res001
          19       pnd19      res001       pnd19   corps_med_res      res001      res001      res001
          20       pnd20      res001       pnd20   corps_med_res      res001      res001      res001
          21       pnd21      res001       pnd21   corps_med_res      res001      res001      res001
          22       pnd22      res001       pnd22   corps_med_res      res001      res001      res001
          23       pnd23      res001       pnd23   corps_med_res      res001      res001      res001
          24       pnd24      res001       pnd24   corps_med_res      res001      res001      res001
          25       pnd25      res001       pnd25   corps_med_res      res001      res001      res001
          26       pnd26      res001       pnd26   corps_med_res      res001      res001      res001
          27       pnd27      res001       pnd27   corps_med_res      res001      res001      res001
          28       pnd28      res001       pnd28   corps_med_res      res001      res001      res001
          29       pnd29      res001       pnd29   corps_med_res      res001      res001      res001
          30       pnd30      res001       pnd30   corps_med_res      res001      res001      res001
          31       pnd31      res001       pnd31   corps_med_res      res001      res001      res001
          32       pnd32      res001       pnd32   corps_med_res      res001      res001      res001
          33       pnd33      res001       pnd33   corps_med_res      res001      res001      res001
          34       pnd34      res001       pnd34   corps_med_res      res001      res001      res001
          35       pnd35      res001       pnd35   corps_med_res      res001      res001      res001
          36       pnd36      res001       pnd36   corps_med_res      res001      res001      res001
          37       pnd37      res001       pnd37   corps_med_res      res001      res001      res001
          38       pnd38      res001       pnd38   corps_med_res      res001      res001      res001
          39       pnd39      res001       pnd39   corps_med_res      res001      res001      res001
          40       pnd40      res001       pnd40   corps_med_res      res001      res001      res001
          41       pnd41      res001       pnd41   corps_med_res      res001      res001      res001
          42       pnd42      res001       pnd42   corps_med_res      res001      res001      res001
          43       pnd43      res001       pnd43   corps_med_res      res001      res001      res001
          44       pnd44      res001       pnd44   corps_med_res      res001      res001      res001
          45       pnd45      res001       pnd45   corps_med_res      res001      res001      res001
          46       pnd46      res001       pnd46   corps_med_res      res001      res001      res001
          47       pnd47      res001       pnd47   corps_med_res      res001      res001      res001
          48       pnd48      res001       pnd48   corps_med_res      res001      res001      res001
          49       pnd49      res001       pnd49   corps_med_res      res001      res001      res001
          50       pnd50      res001       pnd50   corps_med_res      res001      res001      res001
          51       pnd51      res001       pnd51   corps_med_res      res001      res001      res001
          52       pnd52      res001       pnd52   corps_med_res      res001      res001      res001
          53       pnd53      res001       pnd53   corps_med_res      res001      res001      res001
          54       pnd54      res001       pnd54   corps_med_res      res001      res001      res001
          55       pnd55      res001       pnd55   corps_med_res      res001      res001      res001
          56       pnd56      res001       pnd56   corps_med_res      res001      res001      res001
          57       pnd57      res001       pnd57   corps_med_res      res001      res001      res001
          58       pnd58      res001       pnd58   corps_med_res      res001      res001      res001
          59       pnd59      res001       pnd59   corps_med_res      res001      res001      res001
          60       pnd60      res001       pnd60   corps_med_res      res001      res001      res001
          61       pnd61      res001       pnd61   corps_med_res      res001      res001      res001
          62       pnd62      res001       pnd62   corps_med_res      res001      res001      res001
          63       pnd63      res001       pnd63   corps_med_res      res001      res001      res001
          64       pnd64      res001       pnd64   corps_med_res      res001      res001      res001
          65       pnd65      res001       pnd65   corps_med_res      res001      res001      res001
          66       pnd66      res001       pnd66   corps_med_res      res001      res001      res001
          67       pnd67      res001       pnd67   corps_med_res      res001      res001      res001
          68       pnd68      res001       pnd68   corps_med_res      res001      res001      res001
          69       pnd69      res001       pnd69   corps_med_res      res001      res001      res001
          70       pnd70      res001       pnd70   corps_med_res      res001      res001      res001
          71       pnd71      res001       pnd71   corps_med_res      res001      res001      res001
          72       pnd72      res001       pnd72   corps_med_res      res001      res001      res001
          73       pnd73      res001       pnd73   corps_med_res      res001      res001      res001
          74       pnd74      res001       pnd74   corps_med_res      res001      res001      res001
          75       pnd75      res001       pnd75   corps_med_res      res001      res001      res001
          76       pnd76      res001       pnd76   corps_med_res      res001      res001      res001
          77       pnd77      res001       pnd77   corps_med_res      res001      res001      res001
          78       pnd78      res001       pnd78   corps_med_res      res001      res001      res001
          79       pnd79      res001       pnd79   corps_med_res      res001      res001      res001
          80       pnd80      res001       pnd80   corps_med_res      res001      res001      res001
          81       pnd81      res001       pnd81   corps_med_res      res001      res001      res001
          82       pnd82      res001       pnd82   corps_med_res      res001      res001      res001
          83       pnd83      res001       pnd83   corps_med_res      res001      res001      res001
          84       pnd84      res001       pnd84   corps_med_res      res001      res001      res001
          85       pnd85      res001       pnd85   corps_med_res      res001      res001      res001
          86       pnd86      res001       pnd86   corps_med_res      res001      res001      res001
          87       pnd87      res001       pnd87   corps_med_res      res001      res001      res001
          88       pnd88      res001       pnd88   corps_med_res      res001      res001      res001
          89       pnd89      res001       pnd89   corps_med_res      res001      res001      res001
          90       pnd90      res001       pnd90   corps_med_res      res001      res001      res001
          91       pnd91      res001       pnd91   corps_med_res      res001      res001      res001
          92       pnd92      res001       pnd92   corps_med_res      res001      res001      res001
          93       pnd93      res001       pnd93   corps_med_res      res001      res001      res001
          94       pnd94      res001       pnd94   corps_med_res      res001      res001      res001
          95       pnd95      res001       pnd95   corps_med_res      res001      res001      res001
          96       pnd96      res001       pnd96   corps_med_res      res001      res001      res001
          97       pnd97      res001       pnd97   corps_med_res      res001      res001      res001
          98       pnd98      res001       pnd98   corps_med_res      res001      res001      res001
          99       pnd99      res001       pnd99   corps_med_res      res001      res001      res001
         100      pnd100      res001      pnd100   corps_med_res      res001      res001      res001
         101      pnd101      res001      pnd101   corps_med_res      res001      res001      res001
         102      pnd102      res001      pnd102   corps_med_res      res001      res001      res001
         103      pnd103      res001      pnd103   corps_med_res      res001      res001      res001
         104      pnd104      res001      pnd104   corps_med_res      res001      res001      res001
         105      pnd105      res001      pnd105   corps_med_res      res001      res001      res001
         106      pnd106      res001      pnd106   corps_med_res      res001      res001      res001
         107      pnd107      res001      pnd107   corps_med_res      res001      res001      res001
         108      pnd108      res001      pnd108   corps_med_res      res001      res001      res001
         109      pnd109      res001      pnd109   corps_med_res      res001      res001      res001
         110      pnd110      res001      pnd110   corps_med_res      res001      res001      res001
         111      pnd111      res001      pnd111   corps_med_res      res001      res001      res001
         112      pnd112      res001      pnd112   corps_med_res      res001      res001      res001
         113      pnd113      res001      pnd113   corps_med_res      res001      res001      res001
         114      pnd114      res001      pnd114   corps_med_res      res001      res001      res001
         115      pnd115      res001      pnd115   corps_med_res      res001      res001      res001
         116      pnd116      res001      pnd116   corps_med_res      res001      res001      res001
         117      pnd117      res001      pnd117   corps_med_res      res001      res001      res001
         118      pnd118      res001      pnd118   corps_med_res      res001      res001      res001
         119      pnd119      res001      pnd119   corps_med_res      res001      res001      res001
         120      pnd120      res001      pnd120   corps_med_res      res001      res001      res001
         121      pnd121      res001      pnd121   corps_med_res      res001      res001      res001
         122      pnd122      res001      pnd122   corps_med_res      res001      res001      res001
         123      pnd123      res001      pnd123   corps_med_res      res001      res001      res001
         124      pnd124      res001      pnd124   corps_med_res      res001      res001      res001
         125      pnd125      res001      pnd125   corps_med_res      res001      res001      res001
         126      pnd126      res001      pnd126   corps_med_res      res001      res001      res001
         127      pnd127      res001      pnd127   corps_med_res      res001      res001      res001
         128      pnd128      res001      pnd128   corps_med_res      res001      res001      res001
         129      pnd129      res001      pnd129   corps_med_res      res001      res001      res001
         130      pnd130      res001      pnd130   corps_med_res      res001      res001      res001
         131      pnd131      res001      pnd131   corps_med_res      res001      res001      res001
         132      pnd132      res001      pnd132   corps_med_res      res001      res001      res001
         133      pnd133      res001      pnd133   corps_med_res      res001      res001      res001
         134      pnd134      res001      pnd134   corps_med_res      res001      res001      res001
         135      pnd135      res001      pnd135   corps_med_res      res001      res001      res001
         136      pnd136      res001      pnd136   corps_med_res      res001      res001      res001
         137      pnd137      res001      pnd137   corps_med_res      res001      res001      res001
         138      pnd138      res001      pnd138   corps_med_res      res001      res001      res001
         139      pnd139      res001      pnd139   corps_med_res      res001      res001      res001
         140      pnd140      res001      pnd140   corps_med_res      res001      res001      res001
         141      pnd141      res001      pnd141   corps_med_res      res001      res001      res001
         142      pnd142      res001      pnd142   corps_med_res      res001      res001      res001
         143      pnd143      res001      pnd143   corps_med_res      res001      res001      res001
         144      pnd144      res001      pnd144   corps_med_res      res001      res001      res001
         145      pnd145      res001      pnd145   corps_med_res      res001      res001      res001
         146      pnd146      res001      pnd146   corps_med_res      res001      res001      res001
         147      pnd147      res001      pnd147   corps_med_res      res001      res001      res001
         148      pnd148      res001      pnd148   corps_med_res      res001      res001      res001
         149      pnd149      res001      pnd149   corps_med_res      res001      res001      res001
         150      pnd150      res001      pnd150   corps_med_res      res001      res001      res001
         151      pnd151      res001      pnd151   corps_med_res      res001      res001      res001
         152      pnd152      res001      pnd152   corps_med_res      res001      res001      res001
         153      pnd153      res001      pnd153   corps_med_res      res001      res001      res001
         154      pnd154      res001      pnd154   corps_med_res      res001      res001      res001
         155      pnd155      res001      pnd155   corps_med_res      res001      res001      res001
         156      pnd156      res001      pnd156   corps_med_res      res001      res001      res001
         157      pnd157      res001      pnd157   corps_med_res      res001      res001      res001
         158      pnd158      res001      pnd158   corps_med_res      res001      res001      res001
         159      pnd159      res001      pnd159   corps_med_res      res001      res001      res001
         160      pnd160      res001      pnd160   corps_med_res      res001      res001      res001
         161      pnd161      res001      pnd161   corps_med_res      res001      res001      res001
         162      pnd162      res001      pnd162   corps_med_res      res001      res001      res001
         163      pnd163      res001      pnd163   corps_med_res      res001      res001      res001
         164      pnd164      res001      pnd164   corps_med_res      res001      res001      res001
         165      pnd165      res001      pnd165   corps_med_res      res001      res001      res001
         166      pnd166      res001      pnd166   corps_med_res      res001      res001      res001
         167      pnd167      res001      pnd167   corps_med_res      res001      res001      res001
         168      pnd168      res001      pnd168   corps_med_res      res001      res001      res001
         169      pnd169      res001      pnd169   corps_med_res      res001      res001      res001
         170      pnd170      res001      pnd170   corps_med_res      res001      res001      res001
         171      pnd171      res001      pnd171   corps_med_res      res001      res001      res001
         172      pnd172      res001      pnd172   corps_med_res      res001      res001      res001
         173      pnd173      res001      pnd173   corps_med_res      res001      res001      res001
         174      pnd174      res001      pnd174   corps_med_res      res001      res001      res001
         175      pnd175      res001      pnd175   corps_med_res      res001      res001      res001
         176      pnd176      res001      pnd176   corps_med_res      res001      res001      res001
         177      pnd177      res001      pnd177   corps_med_res      res001      res001      res001
         178      pnd178      res001      pnd178   corps_med_res      res001      res001      res001
         179      pnd179      res001      pnd179   corps_med_res      res001      res001      res001
         180      pnd180      res001      pnd180   corps_med_res      res001      res001      res001
         181      pnd181      res001      pnd181   corps_med_res      res001      res001      res001
         182      pnd182      res001      pnd182   corps_med_res      res001      res001      res001
         183      pnd183      res001      pnd183   corps_med_res      res001      res001      res001
         184      pnd184      res001      pnd184   corps_med_res      res001      res001      res001
         185      pnd185      res001      pnd185   corps_med_res      res001      res001      res001
         186      pnd186      res001      pnd186   corps_med_res      res001      res001      res001
         187      pnd187      res001      pnd187   corps_med_res      res001      res001      res001
         188      pnd188      res001      pnd188   corps_med_res      res001      res001      res001
         189      pnd189      res001      pnd189   corps_med_res      res001      res001      res001
         190      pnd190      res001      pnd190   corps_med_res      res001      res001      res001
         191      pnd191      res001      pnd191   corps_med_res      res001      res001      res001
         192      pnd192      res001      pnd192   corps_med_res      res001      res001      res001
         193      pnd193      res001      pnd193   corps_med_res      res001      res001      res001
         194      pnd194      res001      pnd194   corps_med_res      res001      res001      res001
         195      pnd195      res001      pnd195   corps_med_res      res001      res001      res001
         196      pnd196      res001      pnd196   corps_med_res      res001      res001      res001
         197      pnd197      res001      pnd197   corps_med_res      res001      res001      res001
         198      pnd198      res001      pnd198   corps_med_res      res001      res001      res001
         199      pnd199      res001      pnd199   corps_med_res      res001      res001      res001
         200      pnd200      res001      pnd200   corps_med_res      res001      res001      res001
         201      pnd201      res001      pnd201   corps_med_res      res001      res001      res001
         202      pnd202      res001      pnd202   corps_med_res      res001      res001      res001
         203      pnd203      res001      pnd203   corps_med_res      res001      res001      res001
         204      pnd204      res001      pnd204   corps_med_res      res001      res001      res001
         205      pnd205      res001      pnd205   corps_med_res      res001      res001      res001
         206      pnd206      res001      pnd206   corps_med_res      res001      res001      res001
         207      pnd207      res001      pnd207   corps_med_res      res001      res001      res001
         208      pnd208      res001      pnd208   corps_med_res      res001      res001      res001
         209      pnd209      res001      pnd209   corps_med_res      res001      res001      res001
         210      pnd210      res001      pnd210   corps_med_res      res001      res001      res001
         211      pnd211      res001      pnd211   corps_med_res      res001      res001      res001
         212      pnd212      res001      pnd212   corps_med_res      res001      res001      res001
         213      pnd213      res001      pnd213   corps_med_res      res001      res001      res001
         214      pnd214      res001      pnd214   corps_med_res      res001      res001      res001
         215      pnd215      res001      pnd215   corps_med_res      res001      res001      res001
         216      pnd216      res001      pnd216   corps_med_res      res001      res001      res001
         217      pnd217      res001      pnd217   corps_med_res      res001      res001      res001
         218      pnd218      res001      pnd218   corps_med_res      res001      res001      res001
         219      pnd219      res001      pnd219   corps_med_res      res001      res001      res001
         220      pnd220      res001      pnd220   corps_med_res      res001      res001      res001
         221      pnd221      res001      pnd221   corps_med_res      res001      res001      res001
         222      pnd222      res001      pnd222   corps_med_res      res001      res001      res001
         223      pnd223      res001      pnd223   corps_med_res      res001      res001      res001
         224      pnd224      res001      pnd224   corps_med_res      res001      res001      res001
         225      pnd225      res001      pnd225   corps_med_res      res001      res001      res001
         226      pnd226      res001      pnd226   corps_med_res      res001      res001      res001
         227      sre227      res001      sre227   corps_med_res      res001      res001      res001
         228      sre228      res001      sre228   corps_med_res      res001      res001      res001
         229      sre229      res001      sre229   corps_med_res      res001      res001      res001
         230      sre230      res001      sre230   corps_med_res      res001      res001      res001
         231      sre231      res001      sre231   corps_med_res      res001      res001      res001
         232      sre232      res001      sre232   corps_med_res      res001      res001      res001
         233      sre233      res001      sre233   corps_med_res      res001      res001      res001
         234      sre234      res001      sre234   corps_med_res      res001      res001      res001
         235      sre235      res001      sre235   corps_med_res      res001      res001      res001
         236      sre236      res001      sre236   corps_med_res      res001      res001      res001
         237      sre237      res001      sre237   corps_med_res      res001      res001      res001
         238      sre238      res001      sre238   corps_med_res      res001      res001      res001
         239      sre239      res001      sre239   corps_med_res      res001      res001      res001
         240      sre240      res001      sre240   corps_med_res      res001      res001      res001
         241      sre241      res001      sre241   corps_med_res      res001      res001      res001
         242      sre242      res001      sre242   corps_med_res      res001      res001      res001
         243      sre243      res001      sre243   corps_med_res      res001      res001      res001
         244      sre244      res001      sre244   corps_med_res      res001      res001      res001
         245      sre245      res001      sre245   corps_med_res      res001      res001      res001
         246      sre246      res001      sre246   corps_med_res      res001      res001      res001
         247      sre247      res001      sre247   corps_med_res      res001      res001      res001
         248      sre248      res001      sre248   corps_med_res      res001      res001      res001
         249      sre249      res001      sre249   corps_med_res      res001      res001      res001
         250      sre250      res001      sre250   corps_med_res      res001      res001      res001
         251      sre251      res001      sre251   corps_med_res      res001      res001      res001
         252      sre252      res001      sre252   corps_med_res      res001      res001      res001
         253      sre253      res001      sre253   corps_med_res      res001      res001      res001
         254      sre254      res001      sre254   corps_med_res      res001      res001      res001
         255      sre255      res001      sre255   corps_med_res      res001      res001      res001
         256      sre256      res001      sre256   corps_med_res      res001      res001      res001
         257      sre257      res001      sre257   corps_med_res      res001      res001      res001
         258      sre258      res001      sre258   corps_med_res      res001      res001      res001
         259      sre259      res001      sre259   corps_med_res      res001      res001      res001
         260      sre260      res001      sre260   corps_med_res      res001      res001      res001
         261      sre261      res001      sre261   corps_med_res      res001      res001      res001
         262      sre262      res001      sre262   corps_med_res      res001      res001      res001
         263      sre263      res001      sre263   corps_med_res      res001      res001      res001
         264      sre264      res001      sre264   corps_med_res      res001      res001      res001
         265      sre265      res001      sre265   corps_med_res      res001      res001      res001
         266      sre266      res001      sre266   corps_med_res      res001      res001      res001
         267      sre267      res001      sre267   corps_med_res      res001      res001      res001
         268      sre268      res001      sre268   corps_med_res      res001      res001      res001
         269      sre269      res001      sre269   corps_med_res      res001      res001      res001
         270      sre270      res001      sre270   corps_med_res      res001      res001      res001
         271      sre271      res001      sre271   corps_med_res      res001      res001      res001
         272      sre272      res001      sre272   corps_med_res      res001      res001      res001
         273      sre273      res001      sre273   corps_med_res      res001      res001      res001
         274      sre274      res001      sre274   corps_med_res      res001      res001      res001
         275      sre275      res001      sre275   corps_med_res      res001      res001      res001
         276      sre276      res001      sre276   corps_med_res      res001      res001      res001
         277      sre277      res001      sre277   corps_med_res      res001      res001      res001
         278      sre278      res001      sre278   corps_med_res      res001      res001      res001
         279      sre279      res001      sre279   corps_med_res      res001      res001      res001
         280      sre280      res001      sre280   corps_med_res      res001      res001      res001
         281      sre281      res001      sre281   corps_med_res      res001      res001      res001
         282      sre282      res001      sre282   corps_med_res      res001      res001      res001
         283      sre283      res001      sre283   corps_med_res      res001      res001      res001
         284      sre284      res001      sre284   corps_med_res      res001      res001      res001
         285      sre285      res001      sre285   corps_med_res      res001      res001      res001
         286      sre286      res001      sre286   corps_med_res      res001      res001      res001
         287      pnd287      res001      pnd287   corps_med_res      res001      res001      res001
         288      pnd288      res001      pnd288   corps_med_res      res001      res001      res001
         289      pnd289      res001      pnd289   corps_med_res      res001      res001      res001
         290      pnd290      res001      pnd290   corps_med_res      res001      res001      res001
         291      pnd291      res001      pnd291   corps_med_res      res001      res001      res001
         292      pnd292      res001      pnd292   corps_med_res      res001      res001      res001
         293      pnd293      res001      pnd293   corps_med_res      res001      res001      res001
         294      pnd294      res001      pnd294   corps_med_res      res001      res001      res001
         295      pnd295      res001      pnd295   corps_med_res      res001      res001      res001
         296      pnd296      res001      pnd296   corps_med_res      res001      res001      res001
         297      pnd297      res001      pnd297   corps_med_res      res001      res001      res001
         298      pnd298      res001      pnd298   corps_med_res      res001      res001      res001
         299      pnd299      res001      pnd299   corps_med_res      res001      res001      res001
         300      pnd300      res001      pnd300   corps_med_res      res001      res001      res001
         301      pnd301      res001      pnd301   corps_med_res      res001      res001      res001
         302      pnd302      res001      pnd302   corps_med_res      res001      res001      res001
         303      pnd303      res001      pnd303   corps_med_res      res001      res001      res001
         304      pnd304      res001      pnd304   corps_med_res      res001      res001      res001
         305      pnd305      res001      pnd305   corps_med_res      res001      res001      res001
         306      pnd306      res001      pnd306   corps_med_res      res001      res001      res001
         307      pnd307      res001      pnd307   corps_med_res      res001      res001      res001
         308      pnd308      res001      pnd308   corps_med_res      res001      res001      res001
         309      pnd309      res001      pnd309   corps_med_res      res001      res001      res001
         310      pnd310      res001      pnd310   corps_med_res      res001      res001      res001
         311      pnd311      res001      pnd311   corps_med_res      res001      res001      res001
         312      pnd312      res001      pnd312   corps_med_res      res001      res001      res001
         313      pnd313      res001      pnd313   corps_med_res      res001      res001      res001
         314      pnd314      res001      pnd314   corps_med_res      res001      res001      res001
         315      pnd315      res001      pnd315   corps_med_res      res001      res001      res001
         316      pnd316      res001      pnd316   corps_med_res      res001      res001      res001
         317      pnd317      res001      pnd317   corps_med_res      res001      res001      res001
         318      pnd318      res001      pnd318   corps_med_res      res001      res001      res001
         319      pnd319      res001      pnd319   corps_med_res      res001      res001      res001
         320      pnd320      res001      pnd320   corps_med_res      res001      res001      res001
         321      pnd321      res001      pnd321   corps_med_res      res001      res001      res001
         322      pnd322      res001      pnd322   corps_med_res      res001      res001      res001
         323      pnd323      res001      pnd323   corps_med_res      res001      res001      res001
         324      pnd324      res001      pnd324   corps_med_res      res001      res001      res001
         325      pnd325      res001      pnd325   corps_med_res      res001      res001      res001
         326      pnd326      res001      pnd326   corps_med_res      res001      res001      res001
         327      pnd327      res001      pnd327   corps_med_res      res001      res001      res001
         328      pnd328      res001      pnd328   corps_med_res      res001      res001      res001
         329      pnd329      res001      pnd329   corps_med_res      res001      res001      res001
         330      pnd330      res001      pnd330   corps_med_res      res001      res001      res001
         331      pnd331      res001      pnd331   corps_med_res      res001      res001      res001
         332      pnd332      res001      pnd332   corps_med_res      res001      res001      res001
         333      pnd333      res001      pnd333   corps_med_res      res001      res001      res001
         334      pnd334      res001      pnd334   corps_med_res      res001      res001      res001
         335      pnd335      res001      pnd335   corps_med_res      res001      res001      res001
         336      pnd336      res001      pnd336   corps_med_res      res001      res001      res001
         337      pnd337      res001      pnd337   corps_med_res      res001      res001      res001
         338      pnd338      res001      pnd338   corps_med_res      res001      res001      res001
         339      pnd339      res001      pnd339   corps_med_res      res001      res001      res001
         340      pnd340      res001      pnd340   corps_med_res      res001      res001      res001
         341      pnd341      res001      pnd341   corps_med_res      res001      res001      res001
         342      pnd342      res001      pnd342   corps_med_res      res001      res001      res001
         343      pnd343      res001      pnd343   corps_med_res      res001      res001      res001
         344      pnd344      res001      pnd344   corps_med_res      res001      res001      res001
         345      pnd345      res001      pnd345   corps_med_res      res001      res001      res001
         346      pnd346      res001      pnd346   corps_med_res      res001      res001      res001
         347      pnd347      res001      pnd347   corps_med_res      res001      res001      res001
         348      pnd348      res001      pnd348   corps_med_res      res001      res001      res001
         349      pnd349      res001      pnd349   corps_med_res      res001      res001      res001
         350      pnd350      res001      pnd350   corps_med_res      res001      res001      res001
         351      pnd351      res001      pnd351   corps_med_res      res001      res001      res001
         352      pnd352      res001      pnd352   corps_med_res      res001      res001      res001
         353      pnd353      res001      pnd353   corps_med_res      res001      res001      res001
         354      pnd354      res001      pnd354   corps_med_res      res001      res001      res001
         355      pnd355      res001      pnd355   corps_med_res      res001      res001      res001
         356      pnd356      res001      pnd356   corps_med_res      res001      res001      res001
         357      pnd357      res001      pnd357   corps_med_res      res001      res001      res001
         358      pnd358      res001      pnd358   corps_med_res      res001      res001      res001
         359      pnd359      res001      pnd359   corps_med_res      res001      res001      res001
         360      pnd360      res001      pnd360   corps_med_res      res001      res001      res001
         361      pnd361      res001      pnd361   corps_med_res      res001      res001      res001
         362      pnd362      res001      pnd362   corps_med_res      res001      res001      res001
         363      pnd363      res001      pnd363   corps_med_res      res001      res001      res001
         364      pnd364      res001      pnd364   corps_med_res      res001      res001      res001
         365      pnd365      res001      pnd365   corps_med_res      res001      res001      res001
         366      pnd366      res001      pnd366   corps_med_res      res001      res001      res001
         367      pnd367      res001      pnd367   corps_med_res      res001      res001      res001
         368      pnd368      res001      pnd368   corps_med_res      res001      res001      res001
         369      pnd369      res001      pnd369   corps_med_res      res001      res001      res001
         370      pnd370      res001      pnd370   corps_med_res      res001      res001      res001
         371      pnd371      res001      pnd371   corps_med_res      res001      res001      res001
         372      pnd372      res001      pnd372   corps_med_res      res001      res001      res001
         373      pnd373      res001      pnd373   corps_med_res      res001      res001      res001
         374      pnd374      res001      pnd374   corps_med_res      res001      res001      res001
         375      pnd375      res001      pnd375   corps_med_res      res001      res001      res001
         376      pnd376      res001      pnd376   corps_med_res      res001      res001      res001
         377      pnd377      res001      pnd377   corps_med_res      res001      res001      res001
         378      pnd378      res001      pnd378   corps_med_res      res001      res001      res001
         379      pnd379      res001      pnd379   corps_med_res      res001      res001      res001
         380      pnd380      res001      pnd380   corps_med_res      res001      res001      res001
         381      pnd381      res001      pnd381   corps_med_res      res001      res001      res001
         382      pnd382      res001      pnd382   corps_med_res      res001      res001      res001
         383      pnd383      res001      pnd383   corps_med_res      res001      res001      res001
         384      pnd384      res001      pnd384   corps_med_res      res001      res001      res001
         385      pnd385      res001      pnd385   corps_med_res      res001      res001      res001
         386      pnd386      res001      pnd386   corps_med_res      res001      res001      res001
         387      pnd387      res001      pnd387   corps_med_res      res001      res001      res001
         388      pnd388      res001      pnd388   corps_med_res      res001      res001      res001
         389      pnd389      res001      pnd389   corps_med_res      res001      res001      res001
         390      pnd390      res001      pnd390   corps_med_res      res001      res001      res001
         391      pnd391      res001      pnd391   corps_med_res      res001      res001      res001
         392      pnd392      res001      pnd392   corps_med_res      res001      res001      res001
         393      pnd393      res001      pnd393   corps_med_res      res001      res001      res001
         394      pnd394      res001      pnd394   corps_med_res      res001      res001      res001
         395      pnd395      res001      pnd395   corps_med_res      res001      res001      res001
         396      pnd396      res001      pnd396   corps_med_res      res001      res001      res001
         397      pnd397      res001      pnd397   corps_med_res      res001      res001      res001
         398      pnd398      res001      pnd398   corps_med_res      res001      res001      res001
         399      pnd399      res001      pnd399   corps_med_res      res001      res001      res001
         400      pnd400      res001      pnd400   corps_med_res      res001      res001      res001
         401      pnd401      res001      pnd401   corps_med_res      res001      res001      res001
         402      pnd402      res001      pnd402   corps_med_res      res001      res001      res001
         403      pnd403      res001      pnd403   corps_med_res      res001      res001      res001
         404      pnd404      res001      pnd404   corps_med_res      res001      res001      res001
         405      pnd405      res001      pnd405   corps_med_res      res001      res001      res001
         406      pnd406      res001      pnd406   corps_med_res      res001      res001      res001
         407      pnd407      res001      pnd407   corps_med_res      res001      res001      res001
         408      pnd408      res001      pnd408   corps_med_res      res001      res001      res001
         409      pnd409      res001      pnd409   corps_med_res      res001      res001      res001
         410      pnd410      res001      pnd410   corps_med_res      res001      res001      res001
         411      pnd411      res001      pnd411   corps_med_res      res001      res001      res001
         412      pnd412      res001      pnd412   corps_med_res      res001      res001      res001
         413      pnd413      res001      pnd413   corps_med_res      res001      res001      res001
         414      pnd414      res001      pnd414   corps_med_res      res001      res001      res001
         415      pnd415      res001      pnd415   corps_med_res      res001      res001      res001
         416      pnd416      res001      pnd416   corps_med_res      res001      res001      res001
         417      pnd417      res001      pnd417   corps_med_res      res001      res001      res001
         418      pnd418      res001      pnd418   corps_med_res      res001      res001      res001
         419      pnd419      res001      pnd419   corps_med_res      res001      res001      res001
         420      pnd420      res001      pnd420   corps_med_res      res001      res001      res001
         421      pnd421      res001      pnd421   corps_med_res      res001      res001      res001
         422      pnd422      res001      pnd422   corps_med_res      res001      res001      res001
         423      pnd423      res001      pnd423   corps_med_res      res001      res001      res001
         424      pnd424      res001      pnd424   corps_med_res      res001      res001      res001
         425      pnd425      res001      pnd425   corps_med_res      res001      res001      res001
         426      pnd426      res001      pnd426   corps_med_res      res001      res001      res001
         427      pnd427      res001      pnd427   corps_med_res      res001      res001      res001
         428      pnd428      res001      pnd428   corps_med_res      res001      res001      res001
         429      pnd429      res001      pnd429   corps_med_res      res001      res001      res001
         430      pnd430      res001      pnd430   corps_med_res      res001      res001      res001
         431      pnd431      res001      pnd431   corps_med_res      res001      res001      res001
         432      pnd432      res001      pnd432   corps_med_res      res001      res001      res001
         433      pnd433      res001      pnd433   corps_med_res      res001      res001      res001
         434      pnd434      res001      pnd434   corps_med_res      res001      res001      res001
         435      pnd435      res001      pnd435   corps_med_res      res001      res001      res001
         436      pnd436      res001      pnd436   corps_med_res      res001      res001      res001
         437      pnd437      res001      pnd437   corps_med_res      res001      res001      res001
         438      pnd438      res001      pnd438   corps_med_res      res001      res001      res001
         439      pnd439      res001      pnd439   corps_med_res      res001      res001      res001
         440      pnd440      res001      pnd440   corps_med_res      res001      res001      res001
         441      pnd441      res001      pnd441   corps_med_res      res001      res001      res001
         442      pnd442      res001      pnd442   corps_med_res      res001      res001      res001
