sediment.res: Reservoir sediment inputs - Water_LS2_Take2
  RES_SED_NUMB  RES_SED_NAME    SED_AMT    RES_D50    SED_STL    STL_VEL
             1        res001    100.000     20.000     10.000      2.000
