initial.res: Reservoir data file - SB_LS1
  RES_INI_NUMB  RES_INI_NAME    RES_VOL        SED       PARN       NO3N       NO2N       NH3N       PARP       SOLP       SECI       SAND       SILT       CLAY      SM_AG       L_AG     GRAVEL       CHLA    PST_SOL   PST_SORB  BACT_LPER   BACT_PER
             1  reservoir001      0.900    200.000     10.000      2.000      0.200      0.100      1.000      0.100      1.000      0.000      1.000      9.000      0.000      0.000      0.000      0.100      0.010      0.000      0.000      0.000
