management.sch: Management schedules - LREW4
    MGT_NAME    NUMB_OPS   NUMB_AUTO OP_TYPE       MONTH         DAY     HU_SCH COND OP_DATA1 OP_DATA2 OP_OVERRIDE
      mgt001           4           0
                                        plnt           3           1      0.000 null     agrl     null       0.000
                                        harv          11           1      0.000 null    grain     agrl       0.000
                                        kill          11           1      0.000 null     agrl     null       0.000
                                        skip           0           0      0.000 null     null     null       0.000
      mgt002           4           0
                                        plnt           3           1      0.000 null     agrl     null       0.000
                                        harv          11           1      0.000 null    grain     agrl       0.000
                                        kill          11           1      0.000 null     agrl     null       0.000
                                        skip           0           0      0.000 null     null     null       0.000
      mgt003           4           0
                                        plnt           3           1      0.000 null     agrl     null       0.000
                                        harv          11           1      0.000 null    grain     agrl       0.000
                                        kill          11           1      0.000 null     agrl     null       0.000
                                        skip           0           0      0.000 null     null     null       0.000
      mgt004           4           0
                                        plnt           3           1      0.000 null     agrl     null       0.000
                                        harv          11           1      0.000 null    grain     agrl       0.000
                                        kill          11           1      0.000 null     agrl     null       0.000
                                        skip           0           0      0.000 null     null     null       0.000
      mgt005           4           0
                                        plnt           3           1      0.000 null     agrl     null       0.000
                                        harv          11           1      0.000 null    grain     agrl       0.000
                                        kill          11           1      0.000 null     agrl     null       0.000
                                        skip           0           0      0.000 null     null     null       0.000
      mgt006           4           0
                                        plnt           3           1      0.000 null     agrl     null       0.000
                                        harv          11           1      0.000 null    grain     agrl       0.000
                                        kill          11           1      0.000 null     agrl     null       0.000
                                        skip           0           0      0.000 null     null     null       0.000
      mgt007           4           0
                                        plnt           3           1      0.000 null     agrl     null       0.000
                                        harv          11           1      0.000 null    grain     agrl       0.000
                                        kill          11           1      0.000 null     agrl     null       0.000
                                        skip           0           0      0.000 null     null     null       0.000
